<?xml version="1.0" encoding="UTF-8" standalone="no"?>
<!-- Created with Inkscape (http://www.inkscape.org/) -->

<svg
   xmlns:i="http://ns.adobe.com/AdobeIllustrator/10.0/"
   xmlns:dc="http://purl.org/dc/elements/1.1/"
   xmlns:cc="http://creativecommons.org/ns#"
   xmlns:rdf="http://www.w3.org/1999/02/22-rdf-syntax-ns#"
   xmlns:svg="http://www.w3.org/2000/svg"
   xmlns="http://www.w3.org/2000/svg"
   xmlns:sodipodi="http://sodipodi.sourceforge.net/DTD/sodipodi-0.dtd"
   xmlns:inkscape="http://www.inkscape.org/namespaces/inkscape"
   width="1100mm"
   height="220mm"
   viewBox="0 0 1100 220"
   version="1.1"
   id="svg876"
   inkscape:version="0.92.2 5c3e80d, 2017-08-06"
   sodipodi:docname="towel-3.svg">
  <defs
     id="defs870" />
  <sodipodi:namedview
     id="base"
     pagecolor="#ffffff"
     bordercolor="#666666"
     borderopacity="1.0"
     inkscape:pageopacity="0.0"
     inkscape:pageshadow="2"
     inkscape:zoom="0.2"
     inkscape:cx="3097.8921"
     inkscape:cy="415.74803"
     inkscape:document-units="mm"
     inkscape:current-layer="g1677"
     showgrid="false"
     showguides="true"
     inkscape:guide-bbox="true"
     inkscape:window-width="1280"
     inkscape:window-height="755"
     inkscape:window-x="0"
     inkscape:window-y="1"
     inkscape:window-maximized="1"
     borderlayer="true"
     inkscape:snap-bbox="true"
     inkscape:snap-nodes="false"
     inkscape:bbox-nodes="true"
     inkscape:snap-bbox-edge-midpoints="true"
     inkscape:snap-bbox-midpoints="true"
     inkscape:bbox-paths="true">
    <inkscape:grid
       type="xygrid"
       id="grid2777" />
  </sodipodi:namedview>
  <metadata
     id="metadata873">
    <rdf:RDF>
      <cc:Work
         rdf:about="">
        <dc:format>image/svg+xml</dc:format>
        <dc:type
           rdf:resource="http://purl.org/dc/dcmitype/StillImage" />
        <dc:title />
      </cc:Work>
    </rdf:RDF>
  </metadata>
  <g
     inkscape:label="Layer 1"
     inkscape:groupmode="layer"
     id="layer1"
     transform="translate(0,-77)">
    <rect
       style="opacity:1;fill:#a80030;fill-opacity:1;stroke:none;stroke-width:1.5;stroke-linecap:round;stroke-linejoin:miter;stroke-miterlimit:4;stroke-dasharray:none;stroke-dashoffset:10;stroke-opacity:1"
       id="rect1567"
       width="1299.1041"
       height="367.77084"
       x="-99.552063"
       y="3.1145782" />
    <g
       id="g3581"
       transform="translate(-147.80787)">
      <g
         style="fill:#ffffff"
         transform="matrix(0,-3.3973284,3.3973284,0,-569.10033,3395.489)"
         id="g1677" />
      <g
         transform="matrix(0,-1.0897924,1.0897924,0,598.60091,1134.5783)"
         id="g2775">
        <g
           id="g1749"
           transform="matrix(4.7633855,0,0,4.7633855,659.98351,-314.1147)"
           style="fill:#ffffff">
          <path
             d="m 29.000588,136.6487 h 1.820333 c 1.185333,0 1.894417,-0.11642 2.529417,-0.43392 1.2065,-0.59267 1.915583,-1.88383 1.915583,-3.46075 0,-1.48167 -0.613833,-2.70933 -1.703917,-3.3655 -0.613833,-0.37042 -1.545166,-0.56092 -2.772833,-0.56092 h -1.788583 z m 1.449916,-1.38642 v -5.04825 h 0.28575 c 0.92075,0 1.418167,0.0847 1.87325,0.3175 0.740834,0.381 1.195917,1.21708 1.195917,2.2225 0,0.94192 -0.433917,1.778 -1.132417,2.159 -0.433916,0.24342 -1.037166,0.34925 -1.905,0.34925 z"
             style="font-style:normal;font-variant:normal;font-weight:600;font-stretch:normal;font-size:medium;line-height:1;font-family:'URW Gothic L';-inkscape-font-specification:'URW Gothic L Semi-Bold';text-align:center;letter-spacing:0px;word-spacing:0px;text-anchor:middle;fill:#ffffff;fill-opacity:1;stroke:none;stroke-width:0.26458332"
             id="path1708"
             inkscape:connector-curvature="0" />
          <path
             d="m 40.125986,128.69003 c -2.328333,0 -4.1275,1.76742 -4.1275,4.05342 0,2.25425 1.820333,4.04283 4.116917,4.04283 2.275416,0 4.032249,-1.76742 4.032249,-4.05342 0,-2.23308 -1.788583,-4.04283 -4.021666,-4.04283 z m -0.02117,1.397 c 1.449917,0 2.582334,1.16417 2.582334,2.667 0,1.50283 -1.100667,2.63525 -2.582334,2.63525 -1.481666,0 -2.645833,-1.16417 -2.645833,-2.64583 0,-1.51342 1.143,-2.65642 2.645833,-2.65642 z"
             style="font-style:normal;font-variant:normal;font-weight:600;font-stretch:normal;font-size:medium;line-height:1;font-family:'URW Gothic L';-inkscape-font-specification:'URW Gothic L Semi-Bold';text-align:center;letter-spacing:0px;word-spacing:0px;text-anchor:middle;fill:#ffffff;fill-opacity:1;stroke:none;stroke-width:0.26458332"
             id="path1710"
             inkscape:connector-curvature="0" />
          <path
             d="m 45.288998,136.6487 h 1.449917 v -5.68325 l 3.270249,5.68325 h 1.61925 v -7.82109 h -1.449916 v 5.69384 l -3.2385,-5.69384 h -1.651 z"
             style="font-style:normal;font-variant:normal;font-weight:600;font-stretch:normal;font-size:medium;line-height:1;font-family:'URW Gothic L';-inkscape-font-specification:'URW Gothic L Semi-Bold';text-align:center;letter-spacing:0px;word-spacing:0px;text-anchor:middle;fill:#ffffff;fill-opacity:1;stroke:none;stroke-width:0.26458332"
             id="path1712"
             inkscape:connector-curvature="0" />
          <path
             d="m 53.792543,131.21945 v -2.39184 h -1.002772 v 2.39184 z"
             style="font-style:normal;font-variant:normal;font-weight:600;font-stretch:normal;font-size:medium;line-height:1;font-family:'URW Gothic L';-inkscape-font-specification:'URW Gothic L Semi-Bold';text-align:center;letter-spacing:0px;word-spacing:0px;text-anchor:middle;fill:#ffffff;fill-opacity:1;stroke:none;stroke-width:0.26458332"
             id="path1714"
             inkscape:connector-curvature="0"
             sodipodi:nodetypes="ccccc" />
          <path
             d="m 56.263253,136.6487 h 1.449917 v -6.43467 h 1.449916 v -1.38642 h -4.349749 v 1.38642 h 1.449916 z"
             style="font-style:normal;font-variant:normal;font-weight:600;font-stretch:normal;font-size:medium;line-height:1;font-family:'URW Gothic L';-inkscape-font-specification:'URW Gothic L Semi-Bold';text-align:center;letter-spacing:0px;word-spacing:0px;text-anchor:middle;fill:#ffffff;fill-opacity:1;stroke:none;stroke-width:0.26458332"
             id="path1716"
             inkscape:connector-curvature="0" />
        </g>
        <g
           transform="matrix(4.7633855,0,0,4.7633855,657.90086,-314.1147)"
           id="g1742"
           style="fill:#ffffff">
          <path
             d="m 29.108074,147.23203 h 1.449917 v -2.97392 h 0.465667 c 1.11125,0 1.61925,-0.0847 2.053166,-0.34925 0.635,-0.39158 1.026584,-1.18533 1.026584,-2.08491 0,-0.89959 -0.381,-1.64042 -1.058334,-2.05317 -0.4445,-0.26458 -0.963083,-0.35983 -2.00025,-0.35983 h -1.93675 z m 1.449917,-4.36033 v -2.07434 h 0.486833 c 0.47625,0 0.687917,0.0212 0.92075,0.0741 0.423334,0.11641 0.677334,0.48683 0.677334,0.97366 0,0.381 -0.169334,0.67734 -0.47625,0.84667 -0.22225,0.11642 -0.624417,0.17992 -1.185334,0.17992 z"
             style="font-style:normal;font-variant:normal;font-weight:600;font-stretch:normal;font-size:medium;line-height:1;font-family:'URW Gothic L';-inkscape-font-specification:'URW Gothic L Semi-Bold';text-align:center;letter-spacing:0px;word-spacing:0px;text-anchor:middle;fill:#ffffff;fill-opacity:1;stroke:none;stroke-width:0.26458332"
             id="path1718"
             inkscape:connector-curvature="0"
             sodipodi:nodetypes="cccscscsccccscsccc" />
          <path
             d="m 33.336612,147.23203 h 1.598084 l 0.867833,-2.02142 h 2.783416 l 0.836084,2.02142 h 1.598083 l -3.280833,-7.82108 h -1.143 z m 2.995083,-3.40783 0.836084,-2.37067 0.836083,2.37067 z"
             style="font-style:normal;font-variant:normal;font-weight:600;font-stretch:normal;font-size:medium;line-height:1;font-family:'URW Gothic L';-inkscape-font-specification:'URW Gothic L Semi-Bold';text-align:center;letter-spacing:0px;word-spacing:0px;text-anchor:middle;fill:#ffffff;fill-opacity:1;stroke:none;stroke-width:0.26458332"
             id="path1720"
             inkscape:connector-curvature="0" />
          <path
             d="m 41.816343,147.23203 h 1.449917 v -5.68325 l 3.27025,5.68325 h 1.619249 v -7.82108 h -1.449916 v 5.69383 l -3.2385,-5.69383 h -1.651 z"
             style="font-style:normal;font-variant:normal;font-weight:600;font-stretch:normal;font-size:medium;line-height:1;font-family:'URW Gothic L';-inkscape-font-specification:'URW Gothic L Semi-Bold';text-align:center;letter-spacing:0px;word-spacing:0px;text-anchor:middle;fill:#ffffff;fill-opacity:1;stroke:none;stroke-width:0.26458332"
             id="path1722"
             inkscape:connector-curvature="0" />
          <path
             d="m 58.226132,145.05186 c -0.635,0.66675 -1.185333,0.92075 -1.93675,0.92075 -1.439333,0 -2.624667,-1.2065 -2.624667,-2.667 0,-0.635 0.243417,-1.31233 0.645584,-1.778 0.47625,-0.56091 1.153583,-0.85725 1.947333,-0.85725 0.910167,0 1.524,0.29634 2.053167,0.98425 h 1.61925 c -0.306917,-0.67733 -0.582084,-1.04775 -1.11125,-1.48166 -0.719667,-0.58209 -1.640417,-0.89959 -2.592917,-0.89959 -2.211917,0 -4.021667,1.80975 -4.021667,4.02167 0,2.25425 1.830917,4.07458 4.116917,4.07458 1.598083,0 2.995083,-0.889 3.608917,-2.31775 z"
             style="font-style:normal;font-variant:normal;font-weight:600;font-stretch:normal;font-size:medium;line-height:1;font-family:'URW Gothic L';-inkscape-font-specification:'URW Gothic L Semi-Bold';text-align:center;letter-spacing:0px;word-spacing:0px;text-anchor:middle;fill:#ffffff;fill-opacity:1;stroke:none;stroke-width:0.26458332"
             id="path1724"
             inkscape:connector-curvature="0" />
          <path
             sodipodi:nodetypes="csccccccc"
             inkscape:connector-curvature="0"
             i:knockout="Off"
             d="m 51.454789,147.20986 c -0.257056,-0.0385 -0.437105,-0.0643 -0.809393,-0.0643 -0.409959,0 -0.693053,0.026 -0.98778,0.0643 0.128251,-0.24404 0.179496,-0.35982 0.217999,-1.19359 0.05152,-1.14262 0.06426,-2.61015 -0.02548,-3.25196 -0.06426,-0.48807 -0.179496,-0.5648 -0.359269,-0.69305 1.052321,-0.10277 1.347603,-0.1795 1.835122,-0.41052 -0.102213,0.56425 -0.115786,0.84734 -0.115786,1.70687 -0.02521,4.42895 -0.03823,3.31595 0.244591,3.84225"
             id="path1632-3"
             style="fill:#ffffff;stroke-width:0.27699956" />
          <path
             style="fill:#ffffff;stroke-width:0.27699956"
             inkscape:connector-curvature="0"
             i:knockout="Off"
             d="m 51.563096,139.84419 -1.063125,1.06257 -1.06257,-1.06257 1.06257,-1.06257 1.063125,1.06257"
             id="path1638-6" />
        </g>
      </g>
    </g>
    <g
       id="Layer_1"
       i:layer="yes"
       i:dimmedPercent="50"
       i:rgbTrio="#4F008000FFFF"
       transform="matrix(0,1.4711561,-1.4711561,0,381.02034,106.5)"
       style="fill:#ffffff">
      <g
         id="g2906"
         style="fill:#ffffff">
        <path
           style="fill:#ffffff"
           inkscape:connector-curvature="0"
           i:knockout="Off"
           d="m 60.969,47.645 c -1.494,0.02 0.281,0.768 2.232,1.069 0.541,-0.422 1.027,-0.846 1.463,-1.26 -1.213,0.297 -2.449,0.304 -3.695,0.191"
           id="path2868" />
        <path
           style="fill:#ffffff"
           inkscape:connector-curvature="0"
           i:knockout="Off"
           d="m 68.986,45.646 c 0.893,-1.229 1.541,-2.573 1.77,-3.963 -0.201,0.99 -0.736,1.845 -1.244,2.749 -2.793,1.759 -0.264,-1.044 -0.002,-2.111 -3.002,3.783 -0.414,2.268 -0.524,3.325"
           id="path2870" />
        <path
           style="fill:#ffffff"
           inkscape:connector-curvature="0"
           i:knockout="Off"
           d="m 71.949,37.942 c 0.182,-2.691 -0.529,-1.839 -0.768,-0.814 0.278,0.146 0.499,1.898 0.768,0.814"
           id="path2872" />
        <path
           style="fill:#ffffff"
           inkscape:connector-curvature="0"
           i:knockout="Off"
           d="m 55.301,1.163 c 0.798,0.142 1.724,0.252 1.591,0.443 0.876,-0.193 1.073,-0.367 -1.591,-0.443"
           id="path2874" />
        <path
           style="fill:#ffffff"
           inkscape:connector-curvature="0"
           i:knockout="Off"
           d="M 56.893,1.606 56.332,1.723 56.855,1.675 56.893,1.606"
           id="path2876" />
        <path
           style="fill:#ffffff"
           inkscape:connector-curvature="0"
           i:knockout="Off"
           d="m 81.762,38.962 c 0.09,2.416 -0.705,3.59 -1.424,5.666 l -1.293,0.643 c -1.057,2.054 0.105,1.304 -0.652,2.937 -1.652,1.467 -5.006,4.589 -6.08,4.875 -0.785,-0.017 0.531,-0.926 0.703,-1.281 -2.209,1.516 -1.773,2.276 -5.152,3.199 L 67.766,54.78 c -8.33,3.92 -19.902,-3.847 -19.75,-14.443 -0.088,0.672 -0.253,0.504 -0.437,0.774 -0.43,-5.451 2.518,-10.926 7.49,-13.165 4.863,-2.406 10.564,-1.42 14.045,1.829 -1.912,-2.506 -5.721,-5.163 -10.232,-4.917 -4.421,0.072 -8.558,2.881 -9.938,5.932 -2.264,1.425 -2.528,5.496 -3.514,6.242 -1.329,9.76 2.497,13.975 8.97,18.936 1.016,0.686 0.286,0.791 0.422,1.313 -2.15,-1.006 -4.118,-2.526 -5.738,-4.387 0.86,1.257 1.787,2.479 2.986,3.439 -2.029,-0.685 -4.738,-4.913 -5.527,-5.085 3.495,6.258 14.178,10.975 19.775,8.634 -2.59,0.096 -5.879,0.053 -8.787,-1.022 -1.225,-0.629 -2.884,-1.93 -2.587,-2.173 7.636,2.851 15.522,2.158 22.128,-3.137 1.682,-1.31 3.518,-3.537 4.049,-3.567 -0.799,1.202 0.137,0.578 -0.477,1.639 1.672,-2.701 -0.729,-1.1 1.73,-4.664 l 0.908,1.25 c -0.34,-2.244 2.785,-4.966 2.467,-8.512 0.717,-1.084 0.799,1.168 0.039,3.662 1.055,-2.767 0.279,-3.212 0.549,-5.496 0.291,0.768 0.678,1.583 0.875,2.394 -0.688,-2.675 0.703,-4.503 1.049,-6.058 -0.342,-0.15 -1.061,1.182 -1.227,-1.976 0.025,-1.372 0.383,-0.719 0.52,-1.057 -0.268,-0.155 -0.975,-1.207 -1.404,-3.224 0.309,-0.475 0.832,1.229 1.256,1.298 -0.273,-1.603 -0.742,-2.826 -0.762,-4.057 -1.24,-2.59 -0.439,0.346 -1.443,-1.112 -1.32,-4.114 1.094,-0.955 1.258,-2.823 1.998,2.895 3.137,7.385 3.662,9.244 -0.4,-2.267 -1.045,-4.464 -1.834,-6.589 0.609,0.257 -0.979,-4.663 0.791,-1.405 C 87.189,15.552 81,9.062 75.305,6.018 76,6.655 76.879,7.455 76.565,7.581 73.731,5.896 74.229,5.763 73.823,5.051 71.518,4.112 71.364,5.128 69.839,5.053 65.489,2.745 64.651,2.99 60.648,1.546 L 60.83,2.398 C 57.949,1.438 57.473,2.76 54.36,2.4 54.171,2.253 55.358,1.864 56.336,1.723 53.55,2.091 53.68,1.173 50.954,1.824 51.625,1.353 52.337,1.04 53.053,0.64 50.782,0.778 47.629,1.962 48.602,0.884 44.897,2.538 38.316,4.859 34.623,8.322 L 34.507,7.546 c -1.692,2.031 -7.379,6.066 -7.832,8.699 l -0.453,0.105 c -0.879,1.491 -1.45,3.18 -2.148,4.713 -1.151,1.963 -1.688,0.756 -1.524,1.064 -2.265,4.592 -3.392,8.45 -4.363,11.616 0.692,1.035 0.017,6.232 0.278,10.391 -1.136,20.544 14.418,40.489 31.42,45.093 2.492,0.893 6.197,0.861 9.349,0.949 -3.718,-1.064 -4.198,-0.563 -7.822,-1.826 -2.613,-1.232 -3.185,-2.637 -5.037,-4.244 l 0.733,1.295 c -3.63,-1.285 -2.111,-1.59 -5.065,-2.525 l 0.783,-1.021 c -1.177,-0.09 -3.117,-1.982 -3.647,-3.033 l -1.288,0.051 c -1.546,-1.906 -2.371,-3.283 -2.31,-4.35 l -0.416,0.742 c -0.471,-0.809 -5.691,-7.158 -2.983,-5.68 -0.503,-0.458 -1.172,-0.747 -1.897,-2.066 l 0.551,-0.629 c -1.301,-1.677 -2.398,-3.826 -2.314,-4.542 0.695,0.938 1.177,1.114 1.655,1.275 -3.291,-8.164 -3.476,-0.449 -5.967,-8.31 l 0.526,-0.042 c -0.403,-0.611 -0.65,-1.27 -0.974,-1.919 l 0.23,-2.285 c -2.368,-2.736 -0.662,-11.645 -0.319,-16.53 0.235,-1.986 1.977,-4.101 3.3,-7.418 l -0.806,-0.138 c 1.542,-2.688 8.802,-10.799 12.166,-10.383 1.629,-2.046 -0.324,-0.008 -0.643,-0.522 3.579,-3.703 4.704,-2.616 7.119,-3.283 2.603,-1.545 -2.235,0.604 -1.001,-0.589 4.503,-1.149 3.19,-2.614 9.063,-3.197 0.62,0.352 -1.437,0.544 -1.953,1.001 3.75,-1.836 11.869,-1.417 17.145,1.018 6.117,2.861 12.994,11.314 13.266,19.267 l 0.309,0.083 c -0.156,3.162 0.484,6.819 -0.627,10.177 l 0.751,-1.591"
           id="path2878" />
        <path
           style="fill:#ffffff"
           inkscape:connector-curvature="0"
           i:knockout="Off"
           d="m 44.658,49.695 -0.211,1.047 c 0.983,1.335 1.763,2.781 3.016,3.821 -0.902,-1.759 -1.571,-2.486 -2.805,-4.868"
           id="path2880" />
        <path
           style="fill:#ffffff"
           inkscape:connector-curvature="0"
           i:knockout="Off"
           d="m 46.979,49.605 c -0.52,-0.576 -0.826,-1.268 -1.172,-1.956 0.33,1.211 1.006,2.252 1.633,3.312 l -0.461,-1.356"
           id="path2882" />
        <path
           style="fill:#ffffff"
           inkscape:connector-curvature="0"
           i:knockout="Off"
           d="m 88.063,40.675 -0.219,0.552 c -0.402,2.858 -1.273,5.686 -2.605,8.309 1.472,-2.767 2.421,-5.794 2.824,-8.861"
           id="path2884" />
        <path
           style="fill:#ffffff"
           inkscape:connector-curvature="0"
           i:knockout="Off"
           d="M 55.598,0.446 C 56.607,0.077 58.08,0.243 59.154,0 57.756,0.117 56.365,0.187 54.992,0.362 l 0.606,0.084"
           id="path2886" />
        <path
           style="fill:#ffffff"
           inkscape:connector-curvature="0"
           i:knockout="Off"
           d="m 20.127,19.308 c 0.233,2.154 -1.62,2.991 0.41,1.569 1.09,-2.454 -0.424,-0.677 -0.41,-1.569"
           id="path2888" />
        <path
           style="fill:#ffffff"
           inkscape:connector-curvature="0"
           i:knockout="Off"
           d="m 17.739,29.282 c 0.469,-1.437 0.553,-2.299 0.732,-3.132 -1.293,1.654 -0.596,2.007 -0.732,3.132"
           id="path2890" />
        <path
           inkscape:connector-curvature="0"
           i:knockout="Off"
           d="m 13.437,125.506 c -0.045,0.047 -0.045,7.506 -0.138,9.453 -0.092,1.574 -0.232,4.957 -3.568,4.957 -3.429,0 -4.263,-3.939 -4.541,-5.652 -0.324,-1.9 -0.324,-3.477 -0.324,-4.17 0,-2.225 0.139,-8.436 5.375,-8.436 1.576,0 2.456,0.465 3.151,0.834 z M 0,130.975 c 0,13.066 6.951,13.066 7.97,13.066 2.873,0 4.727,-1.576 5.514,-4.309 l 0.093,4.123 c 0.881,-0.047 1.761,-0.139 3.197,-0.139 0.51,0 0.926,0 1.298,0.047 0.371,0 0.741,0.045 1.158,0.092 -0.741,-1.482 -1.297,-4.818 -1.297,-12.049 0,-7.043 0,-18.951 0.602,-22.566 -1.667,0.789 -3.105,1.299 -6.256,1.576 1.251,1.344 1.251,2.039 1.251,8.154 -0.879,-0.277 -1.992,-0.602 -3.892,-0.602 C 1.344,118.369 0,125.598 0,130.975"
           id="path2892"
           style="fill:#ffffff" />
        <path
           inkscape:connector-curvature="0"
           i:knockout="Off"
           d="m 25.13,128.609 c 0.047,-3.846 0.835,-7.275 4.124,-7.275 3.615,0 3.891,3.984 3.799,7.275 z m 12.51,0.465 c 0,-5.422 -1.065,-10.752 -7.923,-10.752 -9.452,0 -9.452,10.475 -9.452,12.697 0,9.406 4.216,13.113 11.306,13.113 3.149,0 4.68,-0.461 5.514,-0.695 -0.046,-1.668 0.185,-2.734 0.465,-4.17 -0.975,0.604 -2.226,1.391 -5.006,1.391 -7.229,0 -7.322,-6.582 -7.322,-8.852 H 37.55 l 0.09,-2.732"
           id="path2894"
           style="fill:#ffffff" />
        <path
           inkscape:connector-curvature="0"
           i:knockout="Off"
           d="m 52.715,131.066 c 0,4.309 -0.787,10.102 -6.162,10.102 -0.742,0 -1.668,-0.141 -2.27,-0.279 -0.093,-1.668 -0.093,-4.541 -0.093,-7.877 0,-3.986 0.416,-6.068 0.742,-7.09 0.972,-3.289 3.15,-3.334 3.566,-3.334 3.522,0 4.217,4.865 4.217,8.478 z m -13.298,5.051 c 0,3.43 0,5.375 -0.556,6.857 1.9,0.742 4.262,1.158 7.09,1.158 1.807,0 7.043,0 9.869,-5.791 1.344,-2.688 1.807,-6.303 1.807,-9.037 0,-1.668 -0.186,-5.328 -1.529,-7.646 -1.296,-2.176 -3.382,-3.289 -5.605,-3.289 -4.449,0 -5.746,3.707 -6.44,5.607 0,-2.363 0.045,-10.611 0.415,-14.828 -3.011,1.391 -4.866,1.621 -6.857,1.807 1.807,0.74 1.807,3.801 1.807,13.764 v 11.398"
           id="path2896"
           style="fill:#ffffff" />
        <path
           inkscape:connector-curvature="0"
           i:knockout="Off"
           d="m 66.535,143.855 c -0.928,-0.139 -1.578,-0.232 -2.922,-0.232 -1.48,0 -2.502,0.094 -3.566,0.232 0.463,-0.881 0.648,-1.299 0.787,-4.309 0.186,-4.125 0.232,-15.154 -0.092,-17.471 -0.232,-1.762 -0.648,-2.039 -1.297,-2.502 3.799,-0.371 4.865,-0.648 6.625,-1.482 -0.369,2.037 -0.418,3.059 -0.418,6.162 -0.091,15.989 -0.138,17.702 0.883,19.602"
           id="path2898"
           style="fill:#ffffff" />
        <path
           inkscape:connector-curvature="0"
           i:knockout="Off"
           d="m 81.373,130.74 c -0.092,2.92 -0.139,4.959 -0.928,6.58 -0.973,2.086 -2.594,2.688 -3.799,2.688 -2.783,0 -3.383,-2.316 -3.383,-4.586 0,-4.355 3.893,-4.682 5.652,-4.682 z m -12.744,5.701 c 0,2.92 0.881,5.838 3.477,7.09 1.158,0.51 2.316,0.51 2.688,0.51 4.264,0 5.699,-3.152 6.58,-5.098 -0.047,2.039 0,3.289 0.139,4.912 0.834,-0.047 1.668,-0.139 3.059,-0.139 0.787,0 1.529,0.092 2.316,0.139 -0.51,-0.787 -0.787,-1.252 -0.928,-3.059 -0.092,-1.76 -0.092,-3.521 -0.092,-5.977 l 0.047,-9.453 c 0,-3.523 -0.928,-6.998 -7.879,-6.998 -4.586,0 -7.273,1.391 -8.617,2.086 0.557,1.02 1.02,1.898 1.436,3.893 1.809,-1.576 4.172,-2.41 6.58,-2.41 3.848,0 3.848,2.549 3.848,6.162 -0.881,-0.045 -1.623,-0.137 -2.875,-0.137 -5.887,10e-4 -9.779,2.268 -9.779,8.479"
           id="path2900"
           style="fill:#ffffff" />
        <path
           inkscape:connector-curvature="0"
           i:knockout="Off"
           d="m 108.063,139.268 c 0.047,1.576 0.047,3.244 0.695,4.588 -1.021,-0.092 -1.623,-0.232 -3.521,-0.232 -1.113,0 -1.715,0.094 -2.596,0.232 0.184,-0.602 0.279,-0.834 0.371,-1.623 0.139,-1.064 0.232,-4.633 0.232,-5.885 v -5.004 c 0,-2.178 0,-5.33 -0.141,-6.441 -0.092,-0.787 -0.322,-2.918 -3.012,-2.918 -2.641,0 -3.521,1.945 -3.846,3.521 -0.369,1.621 -0.369,3.383 -0.369,10.24 0.045,5.932 0.045,6.486 0.508,8.109 -0.787,-0.092 -1.76,-0.184 -3.15,-0.184 -1.113,0 -1.854,0.045 -2.779,0.184 0.324,-0.742 0.51,-1.113 0.602,-3.707 0.094,-2.549 0.279,-15.061 -0.141,-18.025 -0.23,-1.809 -0.695,-2.225 -1.203,-2.688 3.754,-0.186 4.957,-0.789 6.117,-1.389 v 4.91 c 0.555,-1.438 1.713,-4.635 6.348,-4.635 5.793,0 5.838,4.217 5.885,6.996 v 13.951"
           id="path2902"
           style="fill:#ffffff" />
        <path
           style="fill:#ffffff"
           inkscape:connector-curvature="0"
           i:knockout="Off"
           d="m 66.926,111.533 -3.838,3.836 -3.836,-3.836 3.836,-3.836 3.838,3.836"
           id="path2904" />
      </g>
    </g>
  </g>
</svg>
