<?xml version="1.0" encoding="UTF-8" standalone="no"?>
<!-- Created with Inkscape (http://www.inkscape.org/) -->

<svg
   xmlns:dc="http://purl.org/dc/elements/1.1/"
   xmlns:cc="http://creativecommons.org/ns#"
   xmlns:rdf="http://www.w3.org/1999/02/22-rdf-syntax-ns#"
   xmlns:svg="http://www.w3.org/2000/svg"
   xmlns="http://www.w3.org/2000/svg"
   xmlns:sodipodi="http://sodipodi.sourceforge.net/DTD/sodipodi-0.dtd"
   xmlns:inkscape="http://www.inkscape.org/namespaces/inkscape"
   width="210mm"
   height="297mm"
   viewBox="0 0 210 297"
   version="1.1"
   id="svg8"
   inkscape:version="0.92.3 (2405546, 2018-03-11)"
   sodipodi:docname="3.svg">
  <defs
     id="defs2" />
  <sodipodi:namedview
     id="base"
     pagecolor="#ffffff"
     bordercolor="#666666"
     borderopacity="1.0"
     inkscape:pageopacity="0.0"
     inkscape:pageshadow="2"
     inkscape:zoom="0.22984006"
     inkscape:cx="46.438242"
     inkscape:cy="661.05977"
     inkscape:document-units="mm"
     inkscape:current-layer="layer1"
     showgrid="false"
     inkscape:window-width="1024"
     inkscape:window-height="718"
     inkscape:window-x="0"
     inkscape:window-y="29"
     inkscape:window-maximized="1" />
  <metadata
     id="metadata5">
    <rdf:RDF>
      <cc:Work
         rdf:about="">
        <dc:format>image/svg+xml</dc:format>
        <dc:type
           rdf:resource="http://purl.org/dc/dcmitype/StillImage" />
        <dc:title />
      </cc:Work>
    </rdf:RDF>
  </metadata>
  <g
     inkscape:label="Layer 1"
     inkscape:groupmode="layer"
     id="layer1">
    <rect
       style="fill:#7570b3;fill-opacity:0.59215689;stroke-width:0.53020906"
       id="rect10"
       width="210"
       height="148.5"
       x="0"
       y="148.5"
       ry="0.19716777" />
    <path
       style="fill:#000000;fill-opacity:1;stroke:#000000;stroke-width:0.5945884;stroke-linecap:butt;stroke-linejoin:miter;stroke-miterlimit:4;stroke-dasharray:none;stroke-opacity:1"
       d="M -2e-6,222.75 H 210"
       id="path865-5"
       inkscape:connector-curvature="0" />
    <text
       xml:space="preserve"
       style="font-style:normal;font-variant:normal;font-weight:normal;font-stretch:normal;font-size:12.69999981px;line-height:1.10000002;font-family:'Open Sans';-inkscape-font-specification:'Open Sans';letter-spacing:0px;word-spacing:0px;fill:#000000;fill-opacity:1;stroke:none;stroke-width:0.26458332"
       x="105.50849"
       y="238.60771"
       id="text905"><tspan
         sodipodi:role="line"
         x="105.50849"
         y="238.60771"
         style="font-size:12.69999981px;line-height:1.10000002;text-align:center;text-anchor:middle;stroke-width:0.26458332"
         id="tspan1142"> Stir-fried seasonal vegetables dish</tspan><tspan
         sodipodi:role="line"
         x="107.158"
         y="252.57771"
         style="font-size:12.69999981px;line-height:1.10000002;text-align:center;text-anchor:middle;stroke-width:0.26458332"
         id="tspan1247"> (varies with local market arrival) </tspan></text>
    <text
       xml:space="preserve"
       style="font-style:normal;font-variant:normal;font-weight:normal;font-stretch:normal;font-size:14.11111069px;line-height:1.25;font-family:'Open Sans';-inkscape-font-specification:'Open Sans';letter-spacing:0px;word-spacing:0px;fill:#000000;fill-opacity:1;stroke:none;stroke-width:0.26458332"
       x="37.965332"
       y="271.39041"
       id="text909"><tspan
         sodipodi:role="line"
         id="tspan907"
         x="37.965332"
         y="271.39041"
         style="font-size:12.69999981px;stroke-width:0.26458332"> 季節炒時蔬（當日青菜) </tspan></text>
    <text
       xml:space="preserve"
       style="font-style:normal;font-variant:normal;font-weight:normal;font-stretch:normal;font-size:14.11111069px;line-height:1.25;font-family:'Open Sans';-inkscape-font-specification:'Open Sans';letter-spacing:0px;word-spacing:0px;fill:#000000;fill-opacity:1;stroke:none;stroke-width:0.26458332"
       x="4.7947345"
       y="292.71295"
       id="text939"><tspan
         sodipodi:role="line"
         id="tspan937"
         x="4.7947345"
         y="292.71295"
         style="font-size:14.11111069px;stroke-width:0.26458332">D5-E4-E5</tspan></text>
    <rect
       style="fill:#7570b3;fill-opacity:0.59215689;stroke-width:0.53020906"
       id="rect10-0"
       width="210"
       height="148.5"
       x="4.69e-06"
       y="-4.4703484e-06"
       ry="0.19716778" />
    <path
       style="fill:#000000;fill-opacity:1;stroke:#000000;stroke-width:0.5945884;stroke-linecap:butt;stroke-linejoin:miter;stroke-miterlimit:4;stroke-dasharray:none;stroke-opacity:1"
       d="M 4.69e-6,148.5 H 210"
       id="path865-5-0-6"
       inkscape:connector-curvature="0" />
    <flowRoot
       xml:space="preserve"
       id="flowRoot1148"
       style="fill:black;fill-opacity:1;stroke:none;font-family:'Open Sans';font-style:normal;font-weight:normal;font-size:33.33333333px;line-height:1.25;letter-spacing:0px;word-spacing:0px;-inkscape-font-specification:'Open Sans';font-stretch:normal;font-variant:normal"><flowRegion
         id="flowRegion1150"><rect
           id="rect1152"
           width="21.754257"
           height="65.262772"
           x="565.61072"
           y="1183.4315" /></flowRegion><flowPara
         id="flowPara1154" /></flowRoot>    <text
       xml:space="preserve"
       style="font-style:normal;font-variant:normal;font-weight:normal;font-stretch:normal;font-size:12.69999981px;line-height:1.10000002;font-family:'Open Sans';-inkscape-font-specification:'Open Sans';letter-spacing:0px;word-spacing:0px;fill:#000000;fill-opacity:1;stroke:none;stroke-width:0.26458332"
       x="-105.39848"
       y="-205.87335"
       id="text905-1"
       transform="scale(-1)"><tspan
         sodipodi:role="line"
         x="-105.39848"
         y="-205.87335"
         style="font-size:12.69999981px;line-height:1.10000002;text-align:center;text-anchor:middle;stroke-width:0.26458332"
         id="tspan1142-0"> Stir-fried seasonal vegetables dish</tspan><tspan
         sodipodi:role="line"
         x="-103.74897"
         y="-191.90335"
         style="font-size:12.69999981px;line-height:1.10000002;text-align:center;text-anchor:middle;stroke-width:0.26458332"
         id="tspan1247-6"> (varies with local market arrival) </tspan></text>
    <text
       xml:space="preserve"
       style="font-style:normal;font-variant:normal;font-weight:normal;font-stretch:normal;font-size:14.11111069px;line-height:1.25;font-family:'Open Sans';-inkscape-font-specification:'Open Sans';letter-spacing:0px;word-spacing:0px;fill:#000000;fill-opacity:1;stroke:none;stroke-width:0.26458332"
       x="-172.94162"
       y="-173.09065"
       id="text909-3"
       transform="scale(-1)"><tspan
         sodipodi:role="line"
         id="tspan907-2"
         x="-172.94162"
         y="-173.09065"
         style="font-size:12.69999981px;stroke-width:0.26458332"> 季節炒時蔬（當日青菜) </tspan></text>
    <text
       xml:space="preserve"
       style="font-style:normal;font-variant:normal;font-weight:normal;font-stretch:normal;font-size:14.11111069px;line-height:1.25;font-family:'Open Sans';-inkscape-font-specification:'Open Sans';letter-spacing:0px;word-spacing:0px;fill:#000000;fill-opacity:1;stroke:none;stroke-width:0.26458332"
       x="-206.11223"
       y="-151.76811"
       id="text939-0"
       transform="scale(-1)"><tspan
         sodipodi:role="line"
         id="tspan937-6"
         x="-206.11223"
         y="-151.76811"
         style="font-size:14.11111069px;stroke-width:0.26458332">D5-E4-E5</tspan></text>
    <path
       style="fill:#000000;fill-opacity:1;stroke:#000000;stroke-width:0.5945884;stroke-linecap:butt;stroke-linejoin:miter;stroke-miterlimit:4;stroke-dasharray:none;stroke-opacity:1"
       d="M -0.24417867,74.249996 H 209.75582"
       id="path865-5-1"
       inkscape:connector-curvature="0" />
    <text
       xml:space="preserve"
       style="font-style:normal;font-variant:normal;font-weight:normal;font-stretch:normal;font-size:12.69999981px;line-height:1.10000002;font-family:'Open Sans';-inkscape-font-specification:'Open Sans';letter-spacing:0px;word-spacing:0px;fill:#000000;fill-opacity:1;stroke:none;stroke-width:0.26458332"
       x="105.26431"
       y="90.617172"
       id="text905-5"><tspan
         sodipodi:role="line"
         x="105.26431"
         y="90.617172"
         style="font-size:12.69999981px;line-height:1.10000002;text-align:center;text-anchor:middle;stroke-width:0.26458332"
         id="tspan1142-5"> Stir-fried seasonal vegetables dish</tspan><tspan
         sodipodi:role="line"
         x="106.91383"
         y="104.58717"
         style="font-size:12.69999981px;line-height:1.10000002;text-align:center;text-anchor:middle;stroke-width:0.26458332"
         id="tspan1247-4"> (varies with local market arrival) </tspan></text>
    <text
       xml:space="preserve"
       style="font-style:normal;font-variant:normal;font-weight:normal;font-stretch:normal;font-size:14.11111069px;line-height:1.25;font-family:'Open Sans';-inkscape-font-specification:'Open Sans';letter-spacing:0px;word-spacing:0px;fill:#000000;fill-opacity:1;stroke:none;stroke-width:0.26458332"
       x="37.721153"
       y="123.39987"
       id="text909-7"><tspan
         sodipodi:role="line"
         id="tspan907-6"
         x="37.721153"
         y="123.39987"
         style="font-size:12.69999981px;stroke-width:0.26458332"> 季節炒時蔬（當日青菜) </tspan></text>
    <text
       xml:space="preserve"
       style="font-style:normal;font-variant:normal;font-weight:normal;font-stretch:normal;font-size:14.11111069px;line-height:1.25;font-family:'Open Sans';-inkscape-font-specification:'Open Sans';letter-spacing:0px;word-spacing:0px;fill:#000000;fill-opacity:1;stroke:none;stroke-width:0.26458332"
       x="4.5505538"
       y="144.72243"
       id="text939-5"><tspan
         sodipodi:role="line"
         id="tspan937-69"
         x="4.5505538"
         y="144.72243"
         style="font-size:14.11111069px;stroke-width:0.26458332">D5-E4-E5</tspan></text>
    <text
       xml:space="preserve"
       style="font-style:normal;font-variant:normal;font-weight:normal;font-stretch:normal;font-size:12.69999981px;line-height:1.10000002;font-family:'Open Sans';-inkscape-font-specification:'Open Sans';letter-spacing:0px;word-spacing:0px;fill:#000000;fill-opacity:1;stroke:none;stroke-width:0.26458332"
       x="-105.1543"
       y="-57.882812"
       id="text905-1-3"
       transform="scale(-1)"><tspan
         sodipodi:role="line"
         x="-105.1543"
         y="-57.882812"
         style="font-size:12.69999981px;line-height:1.10000002;text-align:center;text-anchor:middle;stroke-width:0.26458332"
         id="tspan1142-0-7"> Stir-fried seasonal vegetables dish</tspan><tspan
         sodipodi:role="line"
         x="-103.50478"
         y="-43.912811"
         style="font-size:12.69999981px;line-height:1.10000002;text-align:center;text-anchor:middle;stroke-width:0.26458332"
         id="tspan1247-6-4"> (varies with local market arrival) </tspan></text>
    <text
       xml:space="preserve"
       style="font-style:normal;font-variant:normal;font-weight:normal;font-stretch:normal;font-size:14.11111069px;line-height:1.25;font-family:'Open Sans';-inkscape-font-specification:'Open Sans';letter-spacing:0px;word-spacing:0px;fill:#000000;fill-opacity:1;stroke:none;stroke-width:0.26458332"
       x="-172.69743"
       y="-25.100105"
       id="text909-3-5"
       transform="scale(-1)"><tspan
         sodipodi:role="line"
         id="tspan907-2-2"
         x="-172.69743"
         y="-25.100105"
         style="font-size:12.69999981px;stroke-width:0.26458332"> 季節炒時蔬（當日青菜) </tspan></text>
    <text
       xml:space="preserve"
       style="font-style:normal;font-variant:normal;font-weight:normal;font-stretch:normal;font-size:14.11111069px;line-height:1.25;font-family:'Open Sans';-inkscape-font-specification:'Open Sans';letter-spacing:0px;word-spacing:0px;fill:#000000;fill-opacity:1;stroke:none;stroke-width:0.26458332"
       x="-205.86804"
       y="-3.7775652"
       id="text939-0-5"
       transform="scale(-1)"><tspan
         sodipodi:role="line"
         id="tspan937-6-4"
         x="-205.86804"
         y="-3.7775652"
         style="font-size:14.11111069px;stroke-width:0.26458332">D5-E4-E5</tspan></text>
  </g>
</svg>
