<?xml version="1.0" encoding="UTF-8" standalone="no"?>
<!-- Created with Inkscape (http://www.inkscape.org/) -->

<svg
   xmlns:dc="http://purl.org/dc/elements/1.1/"
   xmlns:cc="http://creativecommons.org/ns#"
   xmlns:rdf="http://www.w3.org/1999/02/22-rdf-syntax-ns#"
   xmlns:svg="http://www.w3.org/2000/svg"
   xmlns="http://www.w3.org/2000/svg"
   xmlns:sodipodi="http://sodipodi.sourceforge.net/DTD/sodipodi-0.dtd"
   xmlns:inkscape="http://www.inkscape.org/namespaces/inkscape"
   width="210mm"
   height="297mm"
   viewBox="0 0 210 297"
   version="1.1"
   id="svg8"
   inkscape:version="0.92.3 (2405546, 2018-03-11)"
   sodipodi:docname="4.svg">
  <defs
     id="defs2" />
  <sodipodi:namedview
     id="base"
     pagecolor="#ffffff"
     bordercolor="#666666"
     borderopacity="1.0"
     inkscape:pageopacity="0.0"
     inkscape:pageshadow="2"
     inkscape:zoom="0.45968012"
     inkscape:cx="505.07317"
     inkscape:cy="586.04434"
     inkscape:document-units="mm"
     inkscape:current-layer="layer1"
     showgrid="false"
     inkscape:window-width="1024"
     inkscape:window-height="718"
     inkscape:window-x="0"
     inkscape:window-y="29"
     inkscape:window-maximized="1" />
  <metadata
     id="metadata5">
    <rdf:RDF>
      <cc:Work
         rdf:about="">
        <dc:format>image/svg+xml</dc:format>
        <dc:type
           rdf:resource="http://purl.org/dc/dcmitype/StillImage" />
        <dc:title></dc:title>
      </cc:Work>
    </rdf:RDF>
  </metadata>
  <g
     inkscape:label="Layer 1"
     inkscape:groupmode="layer"
     id="layer1">
    <rect
       style="fill:#00ff00;fill-opacity:0.59215686;stroke-width:0.53020906"
       id="rect10"
       width="210"
       height="148.5"
       x="0"
       y="148.5"
       ry="0.19716777" />
    <path
       style="fill:#000000;fill-opacity:1;stroke:#000000;stroke-width:0.5945884;stroke-linecap:butt;stroke-linejoin:miter;stroke-miterlimit:4;stroke-dasharray:none;stroke-opacity:1"
       d="M -2e-6,222.75 H 210"
       id="path865-5"
       inkscape:connector-curvature="0" />
    <text
       xml:space="preserve"
       style="font-style:normal;font-variant:normal;font-weight:normal;font-stretch:normal;font-size:12.69999981px;line-height:1.10000002;font-family:'Open Sans';-inkscape-font-specification:'Open Sans';letter-spacing:0px;word-spacing:0px;fill:#000000;fill-opacity:1;stroke:none;stroke-width:0.26458332"
       x="105"
       y="242.46962"
       id="text905"><tspan
         sodipodi:role="line"
         x="106.64951"
         y="242.46962"
         style="font-size:12.69999981px;line-height:1.10000002;text-align:center;text-anchor:middle;stroke-width:0.26458332"
         id="tspan1247"> Red and white radish soup) </tspan></text>
    <text
       xml:space="preserve"
       style="font-style:normal;font-variant:normal;font-weight:normal;font-stretch:normal;font-size:14.11111069px;line-height:1.25;font-family:'Open Sans';-inkscape-font-specification:'Open Sans';letter-spacing:0px;word-spacing:0px;fill:#000000;fill-opacity:1;stroke:none;stroke-width:0.26458332"
       x="18.915337"
       y="266.62784"
       id="text909"><tspan
         sodipodi:role="line"
         id="tspan907"
         x="18.915337"
         y="266.62784"
         style="font-size:12.69999981px;stroke-width:0.26458332"> 紅白蘿蔔湯（紅蘿蔔，白蘿蔔) </tspan></text>
    <text
       xml:space="preserve"
       style="font-style:normal;font-variant:normal;font-weight:normal;font-stretch:normal;font-size:14.11111069px;line-height:1.25;font-family:'Open Sans';-inkscape-font-specification:'Open Sans';letter-spacing:0px;word-spacing:0px;fill:#000000;fill-opacity:1;stroke:none;stroke-width:0.26458332"
       x="5.9458971"
       y="292.71295"
       id="text939"><tspan
         sodipodi:role="line"
         id="tspan937"
         x="5.9458971"
         y="292.71295"
         style="font-size:14.11111069px;stroke-width:0.26458332">C6</tspan></text>
    <rect
       style="fill:#00ff00;fill-opacity:0.59215686;stroke-width:0.53020906"
       id="rect10-0"
       width="210"
       height="148.5"
       x="4.69e-06"
       y="-4.4703484e-06"
       ry="0.19716778" />
    <path
       style="fill:#000000;fill-opacity:1;stroke:#000000;stroke-width:0.5945884;stroke-linecap:butt;stroke-linejoin:miter;stroke-miterlimit:4;stroke-dasharray:none;stroke-opacity:1"
       d="M 4.69e-6,148.5 H 210"
       id="path865-5-0-6"
       inkscape:connector-curvature="0" />
    <flowRoot
       xml:space="preserve"
       id="flowRoot1148"
       style="fill:black;fill-opacity:1;stroke:none;font-family:'Open Sans';font-style:normal;font-weight:normal;font-size:33.33333333px;line-height:1.25;letter-spacing:0px;word-spacing:0px;-inkscape-font-specification:'Open Sans';font-stretch:normal;font-variant:normal"><flowRegion
         id="flowRegion1150"><rect
           id="rect1152"
           width="21.754257"
           height="65.262772"
           x="565.61072"
           y="1183.4315" /></flowRegion><flowPara
         id="flowPara1154"></flowPara></flowRoot>    <path
       style="fill:#000000;fill-opacity:1;stroke:#000000;stroke-width:0.5945884;stroke-linecap:butt;stroke-linejoin:miter;stroke-miterlimit:4;stroke-dasharray:none;stroke-opacity:1"
       d="M -0.24417867,74.249996 H 209.75582"
       id="path865-5-1"
       inkscape:connector-curvature="0" />
    <text
       xml:space="preserve"
       style="font-style:normal;font-variant:normal;font-weight:normal;font-stretch:normal;font-size:12.69999981px;line-height:1.10000002;font-family:'Open Sans';-inkscape-font-specification:'Open Sans';letter-spacing:0px;word-spacing:0px;fill:#000000;fill-opacity:1;stroke:none;stroke-width:0.26458332"
       x="104.74575"
       y="90.698212"
       id="text905-5"><tspan
         sodipodi:role="line"
         x="104.74575"
         y="90.698212"
         style="font-size:12.69999981px;line-height:1.10000002;text-align:center;text-anchor:middle;stroke-width:0.26458332"
         id="tspan1247-4"> Summer fruits</tspan><tspan
         sodipodi:role="line"
         x="106.39526"
         y="104.66821"
         style="font-size:12.69999981px;line-height:1.10000002;text-align:center;text-anchor:middle;stroke-width:0.26458332"
         id="tspan1471">(varies with local market arrival) </tspan></text>
    <text
       xml:space="preserve"
       style="font-style:normal;font-variant:normal;font-weight:normal;font-stretch:normal;font-size:14.11111069px;line-height:1.25;font-family:'Open Sans';-inkscape-font-specification:'Open Sans';letter-spacing:0px;word-spacing:0px;fill:#000000;fill-opacity:1;stroke:none;stroke-width:0.26458332"
       x="37.965336"
       y="122.90436"
       id="text909-7"><tspan
         sodipodi:role="line"
         id="tspan907-6"
         x="37.965336"
         y="122.90436"
         style="font-size:12.69999981px;stroke-width:0.26458332"> 夏季鮮水果 (當日水果) </tspan></text>
    <text
       xml:space="preserve"
       style="font-style:normal;font-variant:normal;font-weight:normal;font-stretch:normal;font-size:14.11111069px;line-height:1.25;font-family:'Open Sans';-inkscape-font-specification:'Open Sans';letter-spacing:0px;word-spacing:0px;fill:#000000;fill-opacity:1;stroke:none;stroke-width:0.26458332"
       x="4.5505538"
       y="144.72243"
       id="text939-5"><tspan
         sodipodi:role="line"
         id="tspan937-69"
         x="4.5505538"
         y="144.72243"
         style="font-size:14.11111069px;stroke-width:0.26458332">B8-C8</tspan></text>
    <text
       xml:space="preserve"
       style="font-style:normal;font-variant:normal;font-weight:normal;font-stretch:normal;font-size:12.69999981px;line-height:1.10000002;font-family:'Open Sans';-inkscape-font-specification:'Open Sans';letter-spacing:0px;word-spacing:0px;fill:#000000;fill-opacity:1;stroke:none;stroke-width:0.26458332"
       x="-106.01725"
       y="-204.46863"
       id="text905-4"
       transform="scale(-1)"><tspan
         sodipodi:role="line"
         x="-104.36774"
         y="-204.46863"
         style="font-size:12.69999981px;line-height:1.10000002;text-align:center;text-anchor:middle;stroke-width:0.26458332"
         id="tspan1247-9"> Red and white radish soup) </tspan></text>
    <text
       xml:space="preserve"
       style="font-style:normal;font-variant:normal;font-weight:normal;font-stretch:normal;font-size:14.11111069px;line-height:1.25;font-family:'Open Sans';-inkscape-font-specification:'Open Sans';letter-spacing:0px;word-spacing:0px;fill:#000000;fill-opacity:1;stroke:none;stroke-width:0.26458332"
       x="-192.10179"
       y="-180.31041"
       id="text909-2"
       transform="scale(-1)"><tspan
         sodipodi:role="line"
         id="tspan907-0"
         x="-192.10179"
         y="-180.31041"
         style="font-size:12.69999981px;stroke-width:0.26458332"> 紅白蘿蔔湯（紅蘿蔔，白蘿蔔) </tspan></text>
    <text
       xml:space="preserve"
       style="font-style:normal;font-variant:normal;font-weight:normal;font-stretch:normal;font-size:14.11111069px;line-height:1.25;font-family:'Open Sans';-inkscape-font-specification:'Open Sans';letter-spacing:0px;word-spacing:0px;fill:#000000;fill-opacity:1;stroke:none;stroke-width:0.26458332"
       x="-205.07123"
       y="-154.2253"
       id="text939-6"
       transform="scale(-1)"><tspan
         sodipodi:role="line"
         id="tspan937-8"
         x="-205.07123"
         y="-154.2253"
         style="font-size:14.11111069px;stroke-width:0.26458332">C6</tspan></text>
    <text
       xml:space="preserve"
       style="font-style:normal;font-variant:normal;font-weight:normal;font-stretch:normal;font-size:8.8194437px;line-height:1.25;font-family:'Open Sans';-inkscape-font-specification:'Open Sans';letter-spacing:0px;word-spacing:0px;fill:#000000;fill-opacity:1;stroke:none;stroke-width:0.26458332"
       x="22.447674"
       y="142.74417"
       id="text1475"><tspan
         sodipodi:role="line"
         id="tspan1473"
         x="22.447674"
         y="150.55862"
         style="stroke-width:0.26458332" /></text>
    <text
       xml:space="preserve"
       style="font-style:normal;font-variant:normal;font-weight:normal;font-stretch:normal;font-size:12.69999981px;line-height:1.10000002;font-family:'Open Sans';-inkscape-font-specification:'Open Sans';letter-spacing:0px;word-spacing:0px;fill:#000000;fill-opacity:1;stroke:none;stroke-width:0.26458332"
       x="-107.24493"
       y="-57.731949"
       id="text905-5-9"
       transform="scale(-1)"><tspan
         sodipodi:role="line"
         x="-107.24493"
         y="-57.731949"
         style="font-size:12.69999981px;line-height:1.10000002;text-align:center;text-anchor:middle;stroke-width:0.26458332"
         id="tspan1247-4-2"> Summer fruits</tspan><tspan
         sodipodi:role="line"
         x="-105.59541"
         y="-43.761948"
         style="font-size:12.69999981px;line-height:1.10000002;text-align:center;text-anchor:middle;stroke-width:0.26458332"
         id="tspan1471-6">(varies with local market arrival) </tspan></text>
    <text
       xml:space="preserve"
       style="font-style:normal;font-variant:normal;font-weight:normal;font-stretch:normal;font-size:14.11111069px;line-height:1.25;font-family:'Open Sans';-inkscape-font-specification:'Open Sans';letter-spacing:0px;word-spacing:0px;fill:#000000;fill-opacity:1;stroke:none;stroke-width:0.26458332"
       x="-174.02538"
       y="-25.525806"
       id="text909-7-6"
       transform="scale(-1)"><tspan
         sodipodi:role="line"
         id="tspan907-6-4"
         x="-174.02538"
         y="-25.525806"
         style="font-size:12.69999981px;stroke-width:0.26458332"> 夏季鮮水果 (當日水果) </tspan></text>
    <text
       xml:space="preserve"
       style="font-style:normal;font-variant:normal;font-weight:normal;font-stretch:normal;font-size:14.11111069px;line-height:1.25;font-family:'Open Sans';-inkscape-font-specification:'Open Sans';letter-spacing:0px;word-spacing:0px;fill:#000000;fill-opacity:1;stroke:none;stroke-width:0.26458332"
       x="-207.44016"
       y="-3.7077498"
       id="text939-5-9"
       transform="scale(-1)"><tspan
         sodipodi:role="line"
         id="tspan937-69-5"
         x="-207.44016"
         y="-3.7077498"
         style="font-size:14.11111069px;stroke-width:0.26458332">B8-C8</tspan></text>
  </g>
</svg>
